…
### First finding

1.  Let’s start with some data cleaning and preparation

I won’t be using columns guid and userAgent =&gt; I will remove them

Before ploting graphs I want to be sure that there are no outliers that
can make my data biased. So I will check for outliers. Also as observed
there was class imbalance problem in my data thus I took equal amount
from each class for having fair results.

We can check for outliers in two ways in first way we will count numbers
of each household in a table and secnd one using boxplot

    ## # A tibble: 56 x 2
    ##    householdHeadcount Count
    ##                 <dbl> <int>
    ##  1                  2 10258
    ##  2                  1  6213
    ##  3                  4  5168
    ##  4                  3  5162
    ##  5                  5  2008
    ##  6                  6   684
    ##  7                  7   297
    ##  8                  8   101
    ##  9                  9    57
    ## 10                 10    32
    ## # ... with 46 more rows
…
